Einführung in R Programming
…
library(tidyverse)

Bespieldaten des Kurses

Metadaten des The Cancer Genome Atlas (TCGA) zur Analyse von Kopf-Hals-Tumoren (head and neck squamous cell carcinoma; HNSCC). Der Datensatz fasst die wichtigsten klinisch-pathologischen Charakteristika der Studienkohorte (n=279) zusammen.

Link zur Originalpublikation

#Datensatz in R laden
load(url("http://andreasmock.github.io/data/hnscc.RData"))

hnscc

## # A tibble: 279 x 11
##    id      age alcohol days_to_death gender neoplasm_site grade pack_years
##    <chr> <int> <chr>           <int> <chr>  <chr>         <chr>      <dbl>
##  1 TCGA~    69 YES               461 MALE   Oral Tongue   G3            51
##  2 TCGA~    39 YES               415 MALE   Larynx        G2            30
##  3 TCGA~    45 YES              1134 FEMALE Base of Tong~ G2            30
##  4 TCGA~    83 NO                276 MALE   Larynx        G2            75
##  5 TCGA~    47 YES               248 MALE   Floor of Mou~ G2            60
##  6 TCGA~    72 YES               190 MALE   Buccal Mucosa G1            20
##  7 TCGA~    56 YES               845 MALE   Alveolar Rid~ G2            NA
##  8 TCGA~    51 YES              1761 MALE   Tonsil        G2            NA
##  9 TCGA~    54 YES               186 MALE   Larynx        G2            62
## 10 TCGA~    58 YES               179 FEMALE Floor of Mou~ G3            60
## # ... with 269 more rows, and 3 more variables: tabacco_group <chr>,
## #   tumor_stage <chr>, vital_status <chr>
…
