Angewandte Datenanalyse mit R
…
Dataframe mit Spalten “age” und “grade”. Ändert die Spaltennamen ins Deutsche um.

hnscc %>%
    select(age,grade) %>%
    rename(Alter=age,Grading=grade)

## # A tibble: 279 x 2
##    Alter Grading
##    <int> <chr>  
##  1    69 G3     
##  2    39 G2     
##  3    45 G2     
##  4    83 G2     
##  5    47 G2     
##  6    72 G1     
##  7    56 G2     
##  8    51 G2     
##  9    54 G2     
## 10    58 G3     
## # ... with 269 more rows
…
