Einführung in R Programming
…
library(tidyverse)

Bespieldaten des Kurses

Metadaten des The Cancer Genome Atlas (TCGA) zur Analyse von Kopf-Hals-Tumoren (head and neck squamous cell carcinoma; HNSCC). Der Datensatz fasst die wichtigsten klinisch-pathologischen Charakteristika der Studienkohorte (n=279) zusammen.

Link zur Originalpublikation

#Datensatz in R laden
load(url("http://andreasmock.github.io/data/hnscc.RData"))

hnscc

## # A tibble: 279 x 11
##    id      age alcohol days_to_death gender neoplasm_site grade pack_years
##    <chr> <int> <chr>           <int> <chr>  <chr>         <chr>      <dbl>
##  1 TCGA~    69 YES               461 MALE   Oral Tongue   G3            51
##  2 TCGA~    39 YES               415 MALE   Larynx        G2            30
##  3 TCGA~    45 YES              1134 FEMALE Base of Tong~ G2            30
##  4 TCGA~    83 NO                276 MALE   Larynx        G2            75
##  5 TCGA~    47 YES               248 MALE   Floor of Mou~ G2            60
##  6 TCGA~    72 YES               190 MALE   Buccal Mucosa G1            20
##  7 TCGA~    56 YES               845 MALE   Alveolar Rid~ G2            NA
##  8 TCGA~    51 YES              1761 MALE   Tonsil        G2            NA
##  9 TCGA~    54 YES               186 MALE   Larynx        G2            62
## 10 TCGA~    58 YES               179 FEMALE Floor of Mou~ G3            60
## # ... with 269 more rows, and 3 more variables: tabacco_group <chr>,
## #   tumor_stage <chr>, vital_status <chr>
…
Tibbles

Tibbles sind morderne Dataframes.

class(hnscc)

## [1] "tbl_df"     "tbl"        "data.frame"

Der hnscc Datensatz ist eigentlich streng genommen kein Dataframe, sondern ein sogenannter Tibble, die moderne Weiterentwicklung eines R Dataframes.

hnscc

## # A tibble: 279 x 11
##    id      age alcohol days_to_death gender neoplasm_site grade pack_years
##    <chr> <int> <chr>           <int> <chr>  <chr>         <chr>      <dbl>
##  1 TCGA~    69 YES               461 MALE   Oral Tongue   G3            51
##  2 TCGA~    39 YES               415 MALE   Larynx        G2            30
##  3 TCGA~    45 YES              1134 FEMALE Base of Tong~ G2            30
##  4 TCGA~    83 NO                276 MALE   Larynx        G2            75
##  5 TCGA~    47 YES               248 MALE   Floor of Mou~ G2            60
##  6 TCGA~    72 YES               190 MALE   Buccal Mucosa G1            20
##  7 TCGA~    56 YES               845 MALE   Alveolar Rid~ G2            NA
##  8 TCGA~    51 YES              1761 MALE   Tonsil        G2            NA
##  9 TCGA~    54 YES               186 MALE   Larynx        G2            62
## 10 TCGA~    58 YES               179 FEMALE Floor of Mou~ G3            60
## # ... with 269 more rows, and 3 more variables: tabacco_group <chr>,
## #   tumor_stage <chr>, vital_status <chr>
…
Gruppenweise transformieren
group_by() & summarize()

Transformationen kombinieren
pipe Funktion %>%

Zeilen filtern mit filter()

Die Funktion filter() ermöglicht es uns ein Subset aus den Zeilen auszuwählen. Das erste Argument ist das Objekt, die weiteren Argumente sind die Spalten, wonach wir filtern möchten.

young <- filter(hnscc, age<50)

young

## # A tibble: 42 x 11
##    id      age alcohol days_to_death gender neoplasm_site grade pack_years
##    <chr> <int> <chr>           <int> <chr>  <chr>         <chr>      <dbl>
##  1 TCGA~    39 YES               415 MALE   Larynx        G2            30
##  2 TCGA~    45 YES              1134 FEMALE Base of Tong~ G2            30
##  3 TCGA~    47 YES               248 MALE   Floor of Mou~ G2            60
##  4 TCGA~    41 YES               242 FEMALE Oral Tongue   G2            NA
##  5 TCGA~    47 YES               395 MALE   Floor of Mou~ G2            40
##  6 TCGA~    28 YES               113 MALE   Oral Tongue   G2             1
##  7 TCGA~    48 NO               2891 MALE   Tonsil        G3            NA
##  8 TCGA~    19 NO                240 MALE   Oral Tongue   G2            NA
##  9 TCGA~    48 YES               397 FEMALE Oral Tongue   G3            20
## 10 TCGA~    48 YES               252 MALE   Larynx        G3            15
## # ... with 32 more rows, and 3 more variables: tabacco_group <chr>,
## #   tumor_stage <chr>, vital_status <chr>

larynx <- filter(hnscc, neoplasm_site=="Larynx")

larynx

## # A tibble: 72 x 11
##    id      age alcohol days_to_death gender neoplasm_site grade pack_years
##    <chr> <int> <chr>           <int> <chr>  <chr>         <chr>      <dbl>
##  1 TCGA~    39 YES               415 MALE   Larynx        G2            30
##  2 TCGA~    83 NO                276 MALE   Larynx        G2            75
##  3 TCGA~    54 YES               186 MALE   Larynx        G2            62
##  4 TCGA~    53 YES               152 MALE   Larynx        G2            60
##  5 TCGA~    62 YES               244 MALE   Larynx        G2            46
##  6 TCGA~    60 YES               450 FEMALE Larynx        G2            40
##  7 TCGA~    68 YES               186 MALE   Larynx        G3            60
##  8 TCGA~    67 YES               412 MALE   Larynx        G2            NA
##  9 TCGA~    56 YES               194 MALE   Larynx        G2            80
## 10 TCGA~    52 YES               369 MALE   Larynx        G3           120
## # ... with 62 more rows, and 3 more variables: tabacco_group <chr>,
## #   tumor_stage <chr>, vital_status <chr>
…
Zeilen sortieren mit arrange()

Die Funktion arrange() sortiert Zeilen nach Spalteninformationen.

arrange(hnscc, grade)

## # A tibble: 279 x 11
##    id      age alcohol days_to_death gender neoplasm_site grade pack_years
##    <chr> <int> <chr>           <int> <chr>  <chr>         <chr>      <dbl>
##  1 TCGA~    72 YES               190 MALE   Buccal Mucosa G1            20
##  2 TCGA~    65 YES              1635 MALE   Hard Palate   G1            NA
##  3 TCGA~    61 YES               236 MALE   Oral Tongue   G1            46
##  4 TCGA~    55 YES               413 FEMALE Floor of Mou~ G1            60
##  5 TCGA~    52 YES              1440 MALE   Oral Cavity   G1            45
##  6 TCGA~    45 YES               759 MALE   Oral Tongue   G1            NA
##  7 TCGA~    69 YES              1430 MALE   Oral Cavity   G1            54
##  8 TCGA~    36 YES               913 FEMALE Oral Tongue   G1            NA
##  9 TCGA~    67 NO                946 FEMALE Oral Tongue   G1            30
## 10 TCGA~    62 NO                743 MALE   Oral Tongue   G1            NA
## # ... with 269 more rows, and 3 more variables: tabacco_group <chr>,
## #   tumor_stage <chr>, vital_status <chr>

Hierbei kann wie auch beim Filtern eine Sortierung in mehreren Schritten erfolgen.

arrange(hnscc, age, grade)

## # A tibble: 279 x 11
##    id      age alcohol days_to_death gender neoplasm_site grade pack_years
##    <chr> <int> <chr>           <int> <chr>  <chr>         <chr>      <dbl>
##  1 TCGA~    19 NO                240 MALE   Oral Tongue   G2            NA
##  2 TCGA~    26 YES               908 MALE   Oral Tongue   G2            NA
##  3 TCGA~    26 YES              1315 MALE   Oral Tongue   G2            NA
##  4 TCGA~    28 YES               113 MALE   Oral Tongue   G2             1
##  5 TCGA~    29 <NA>              761 FEMALE Oral Tongue   GX            NA
##  6 TCGA~    32 YES                64 FEMALE Oral Tongue   G2            NA
##  7 TCGA~    34 YES               327 MALE   Oral Tongue   G2            NA
##  8 TCGA~    35 YES              1152 FEMALE Tonsil        GX            NA
##  9 TCGA~    36 YES               913 FEMALE Oral Tongue   G1            NA
## 10 TCGA~    38 YES               351 MALE   Tonsil        G2            26
## # ... with 269 more rows, and 3 more variables: tabacco_group <chr>,
## #   tumor_stage <chr>, vital_status <chr>

Spalten selektieren mit select()

select(hnscc, days_to_death, vital_status)

## # A tibble: 279 x 2
##    days_to_death vital_status
##            <int> <chr>       
##  1           461 DECEASED    
##  2           415 DECEASED    
##  3          1134 DECEASED    
##  4           276 DECEASED    
##  5           248 LIVING      
##  6           190 LIVING      
##  7           845 LIVING      
##  8          1761 DECEASED    
##  9           186 LIVING      
## 10           179 LIVING      
## # ... with 269 more rows

Umgekehrt können auch Spalten ausgeschlossen werden

select(hnscc, -c(id,age))

## # A tibble: 279 x 9
##    alcohol days_to_death gender neoplasm_site grade pack_years tabacco_group
##    <chr>           <int> <chr>  <chr>         <chr>      <dbl> <chr>        
##  1 YES               461 MALE   Oral Tongue   G3            51 Current smok~
##  2 YES               415 MALE   Larynx        G2            30 Current smok~
##  3 YES              1134 FEMALE Base of Tong~ G2            30 Current refo~
##  4 NO                276 MALE   Larynx        G2            75 Current refo~
##  5 YES               248 MALE   Floor of Mou~ G2            60 Current smok~
##  6 YES               190 MALE   Buccal Mucosa G1            20 Current refo~
##  7 YES               845 MALE   Alveolar Rid~ G2            NA Lifelong Non~
##  8 YES              1761 MALE   Tonsil        G2            NA Lifelong Non~
##  9 YES               186 MALE   Larynx        G2            62 Current refo~
## 10 YES               179 FEMALE Floor of Mou~ G3            60 Current refo~
## # ... with 269 more rows, and 2 more variables: tumor_stage <chr>,
## #   vital_status <chr>

Spaltennamen umbenennen mit rename()

rename(hnscc, barcode=id)

## # A tibble: 279 x 11
##    barcode   age alcohol days_to_death gender neoplasm_site grade pack_years
##    <chr>   <int> <chr>           <int> <chr>  <chr>         <chr>      <dbl>
##  1 TCGA-B~    69 YES               461 MALE   Oral Tongue   G3            51
##  2 TCGA-B~    39 YES               415 MALE   Larynx        G2            30
##  3 TCGA-B~    45 YES              1134 FEMALE Base of Tong~ G2            30
##  4 TCGA-B~    83 NO                276 MALE   Larynx        G2            75
##  5 TCGA-B~    47 YES               248 MALE   Floor of Mou~ G2            60
##  6 TCGA-B~    72 YES               190 MALE   Buccal Mucosa G1            20
##  7 TCGA-B~    56 YES               845 MALE   Alveolar Rid~ G2            NA
##  8 TCGA-B~    51 YES              1761 MALE   Tonsil        G2            NA
##  9 TCGA-B~    54 YES               186 MALE   Larynx        G2            62
## 10 TCGA-B~    58 YES               179 FEMALE Floor of Mou~ G3            60
## # ... with 269 more rows, and 3 more variables: tabacco_group <chr>,
## #   tumor_stage <chr>, vital_status <chr>
…
#Tibble
hnscc

## # A tibble: 279 x 12
##    id      age alcohol days_to_death gender neoplasm_site grade pack_years
##    <chr> <int> <chr>           <int> <chr>  <chr>         <chr>      <dbl>
##  1 TCGA~    69 YES               461 MALE   Oral Tongue   G3            51
##  2 TCGA~    39 YES               415 MALE   Larynx        G2            30
##  3 TCGA~    45 YES              1134 FEMALE Base of Tong~ G2            30
##  4 TCGA~    83 NO                276 MALE   Larynx        G2            75
##  5 TCGA~    47 YES               248 MALE   Floor of Mou~ G2            60
##  6 TCGA~    72 YES               190 MALE   Buccal Mucosa G1            20
##  7 TCGA~    56 YES               845 MALE   Alveolar Rid~ G2            NA
##  8 TCGA~    51 YES              1761 MALE   Tonsil        G2            NA
##  9 TCGA~    54 YES               186 MALE   Larynx        G2            62
## 10 TCGA~    58 YES               179 FEMALE Floor of Mou~ G3            60
## # ... with 269 more rows, and 4 more variables: tabacco_group <chr>,
## #   tumor_stage <chr>, vital_status <chr>, years_to_death <dbl>
…
